{
	"info": {
		"_postman_id": "c0c133a7-2362-444a-b8f7-ba7e5db89ca2",
		"name": "Product Catalog Management API v1",
		"description": "Welcome to the Product Catalog Manament API v1 documentation. Here you will find technical resources and examples for related endpoints. Features include:\n\n*   Product\n*   Category\n*   User\n    \n\n# Authentication and Security\n\n*   JWT authentication\n*   Rate limiting could be implemented\n*   Restricted access from specific IPs could be implemented\n    \n\n# Backlog\n\n*   Checking if categoryId is valid in post_product and put_product_category endpoints.\n*   Showing category name on get_products, post_product, put_product endpoints.\n*   Adding currency parameter for price.  \n    *   Adding new collection for currencies.\n    *   Implementing currency parameter for post_product, put_product, get_products endpoints.\n*   Environment name could be implemented on baseUrl (i.e.: localhost:8080/api/v1/dev)\n*   Testing should be taken place on another database.\n*   Status code, exception cases, trackId should be added in log objects.\n*   Pagination could be implemented for get_products endpoint.\n*   Logging could be on file or other service like NewRelic, Cloudwatch instead of console.\n*   New test cases could be implemented;  \n    *   Success and fail cases for **login**, **signup** endpoints\n    *   Checking response object with expected values, types, length in depth\n    *   Checking with invalid categoryId on **post_product**, **put_product** endpoints\n    *   Unauthorized requests\n    *   Token control with each endpoint\n*   Code has some repetition. Refactoring is needed.",
		"schema": "https://schema.getpostman.com/json/collection/v2.1.0/collection.json"
	},
	"item": [
		{
			"name": "User Related",
			"item": [
				{
					"name": "login",
					"request": {
						"method": "POST",
						"header": [],
						"body": {
							"mode": "raw",
							"raw": "{\n    \"email\": \"444@egb.com\",\n    \"password\": \"123asd321\"\n}",
							"options": {
								"raw": {
									"language": "json"
								}
							}
						},
						"url": {
							"raw": "{{baseUrl}}/login",
							"host": [
								"{{baseUrl}}"
							],
							"path": [
								"login"
							]
						},
						"description": "Login operation needs two parameters like below."
					},
					"response": [
						{
							"name": "login",
							"originalRequest": {
								"method": "POST",
								"header": [],
								"body": {
									"mode": "raw",
									"raw": "{\n    \"email\": \"444@egb.com\",\n    \"password\": \"123asd321\"\n}",
									"options": {
										"raw": {
											"language": "json"
										}
									}
								},
								"url": {
									"raw": "localhost:8080/api/v1/login",
									"host": [
										"localhost"
									],
									"port": "8080",
									"path": [
										"api",
										"v1",
										"login"
									]
								}
							},
							"status": "OK",
							"code": 200,
							"_postman_previewlanguage": "json",
							"header": [
								{
									"key": "X-Powered-By",
									"value": "Express"
								},
								{
									"key": "Access-Control-Allow-Origin",
									"value": "http://localhost:8081"
								},
								{
									"key": "Vary",
									"value": "Origin"
								},
								{
									"key": "Access-Control-Allow-Headers",
									"value": "Origin, Content-Type, Accept"
								},
								{
									"key": "Content-Type",
									"value": "application/json; charset=utf-8"
								},
								{
									"key": "Content-Length",
									"value": "243"
								},
								{
									"key": "ETag",
									"value": "W/\"f3-CYw6CBRkYHFE0mwX5XSWT7Agdg4\""
								},
								{
									"key": "Set-Cookie",
									"value": "session=eyJ0b2tlbiI6ImV5SmhiR2NpT2lKSVV6STFOaUlzSW5SNWNDSTZJa3BYVkNKOS5leUpwWkNJNklqWXlOMkV4Wm1aalpqUmhOalJsTWpoa1lXWmhZbU0wTnlJc0ltbGhkQ0k2TVRZMU1qSXdPVGMzTUN3aVpYaHdJam94TmpVeU1qazJNVGN3ZlEuTFFKX1h0Rmw5aC00ZHd2RWgtWm5zbFg1UHFacTV1dmgtZ3NUYWdtM2YzYyJ9; path=/; httponly"
								},
								{
									"key": "Set-Cookie",
									"value": "session.sig=exZJtv3QAX3VvAzYTW8d29_8pns; path=/; httponly"
								},
								{
									"key": "Date",
									"value": "Tue, 10 May 2022 19:09:30 GMT"
								},
								{
									"key": "Connection",
									"value": "keep-alive"
								},
								{
									"key": "Keep-Alive",
									"value": "timeout=5"
								}
							],
							"cookie": [],
							"body": "{\n    \"id\": \"627a1ffcf4a64e28dafabc47\",\n    \"email\": \"444@egb.com\",\n    \"accessToken\": \"eyJhbGciOiJIUzI1NiIsInR5cCI6IkpXVCJ9.eyJpZCI6IjYyN2ExZmZjZjRhNjRlMjhkYWZhYmM0NyIsImlhdCI6MTY1MjIwOTc3MCwiZXhwIjoxNjUyMjk2MTcwfQ.LQJ_XtFl9h-4dwvEh-ZnslX5PqZq5uvh-gsTagm3f3c\"\n}"
						}
					]
				},
				{
					"name": "signup",
					"request": {
						"method": "POST",
						"header": [],
						"body": {
							"mode": "raw",
							"raw": "{\n    \"email\": \"asd@egb.com\",\n    \"password\": \"123asd321\"\n}",
							"options": {
								"raw": {
									"language": "json"
								}
							}
						},
						"url": {
							"raw": "{{baseUrl}}/signup",
							"host": [
								"{{baseUrl}}"
							],
							"path": [
								"signup"
							]
						},
						"description": "New users could be created here in this endpoint."
					},
					"response": [
						{
							"name": "signup",
							"originalRequest": {
								"method": "POST",
								"header": [],
								"body": {
									"mode": "raw",
									"raw": "{\n    \"email\": \"asd@egb.com\",\n    \"password\": \"123asd321\"\n}",
									"options": {
										"raw": {
											"language": "json"
										}
									}
								},
								"url": {
									"raw": "localhost:8080/api/v1/signup",
									"host": [
										"localhost"
									],
									"port": "8080",
									"path": [
										"api",
										"v1",
										"signup"
									]
								}
							},
							"status": "OK",
							"code": 200,
							"_postman_previewlanguage": "json",
							"header": [
								{
									"key": "X-Powered-By",
									"value": "Express"
								},
								{
									"key": "Access-Control-Allow-Origin",
									"value": "http://localhost:8081"
								},
								{
									"key": "Vary",
									"value": "Origin"
								},
								{
									"key": "Access-Control-Allow-Headers",
									"value": "Origin, Content-Type, Accept"
								},
								{
									"key": "Content-Type",
									"value": "application/json; charset=utf-8"
								},
								{
									"key": "Content-Length",
									"value": "98"
								},
								{
									"key": "ETag",
									"value": "W/\"62-evPhQxutaiVM7aWL/4mhPB6HFmQ\""
								},
								{
									"key": "Date",
									"value": "Wed, 11 May 2022 07:18:26 GMT"
								},
								{
									"key": "Connection",
									"value": "keep-alive"
								},
								{
									"key": "Keep-Alive",
									"value": "timeout=5"
								}
							],
							"cookie": [],
							"body": "{\n    \"message\": \"Registration has been completed successfully. Please use /login to get access token.\"\n}"
						}
					]
				},
				{
					"name": "signout",
					"request": {
						"method": "POST",
						"header": [],
						"url": {
							"raw": "{{baseUrl}}/signout",
							"host": [
								"{{baseUrl}}"
							],
							"path": [
								"signout"
							]
						},
						"description": "Logging out operation is taken place here in this endpoint."
					},
					"response": [
						{
							"name": "signout",
							"originalRequest": {
								"method": "POST",
								"header": [],
								"url": {
									"raw": "localhost:8080/api/v1/signout",
									"host": [
										"localhost"
									],
									"port": "8080",
									"path": [
										"api",
										"v1",
										"signout"
									]
								}
							},
							"status": "OK",
							"code": 200,
							"_postman_previewlanguage": "json",
							"header": [
								{
									"key": "X-Powered-By",
									"value": "Express"
								},
								{
									"key": "Access-Control-Allow-Origin",
									"value": "http://localhost:8081"
								},
								{
									"key": "Vary",
									"value": "Origin"
								},
								{
									"key": "Access-Control-Allow-Headers",
									"value": "Origin, Content-Type, Accept"
								},
								{
									"key": "Content-Type",
									"value": "application/json; charset=utf-8"
								},
								{
									"key": "Content-Length",
									"value": "46"
								},
								{
									"key": "ETag",
									"value": "W/\"2e-6o2bNjgjXy5rUbMeQpdWBxhd/+k\""
								},
								{
									"key": "Set-Cookie",
									"value": "session=; path=/; expires=Thu, 01 Jan 1970 00:00:00 GMT; httponly"
								},
								{
									"key": "Set-Cookie",
									"value": "session.sig=cVWdeWYi0wUYxdh5vr3CKMXLKA8; path=/; expires=Thu, 01 Jan 1970 00:00:00 GMT; httponly"
								},
								{
									"key": "Date",
									"value": "Wed, 11 May 2022 07:18:38 GMT"
								},
								{
									"key": "Connection",
									"value": "keep-alive"
								},
								{
									"key": "Keep-Alive",
									"value": "timeout=5"
								}
							],
							"cookie": [],
							"body": "{\n    \"message\": \"You have signed out successfully\"\n}"
						}
					]
				}
			],
			"description": "User related operations are taken place in login, signup, signout endpoints listed in this folder."
		},
		{
			"name": "Product",
			"item": [
				{
					"name": "post_product",
					"request": {
						"method": "POST",
						"header": [],
						"body": {
							"mode": "raw",
							"raw": "{\n    \"title\": \"airbus a320\",\n    \"description\": \"test description\",\n    \"price\": 700,\n    \"categoryId\": \"627a395894e75c4365627e55\"\n}",
							"options": {
								"raw": {
									"language": "json"
								}
							}
						},
						"url": {
							"raw": "{{baseUrl}}/product",
							"host": [
								"{{baseUrl}}"
							],
							"path": [
								"product"
							]
						},
						"description": "This could be used for creating new product"
					},
					"response": [
						{
							"name": "post_product",
							"originalRequest": {
								"method": "POST",
								"header": [],
								"body": {
									"mode": "raw",
									"raw": "{\n    \"title\": \"airbus a320\",\n    \"description\": \"test description\",\n    \"price\": 700,\n    \"categoryId\": \"627a395894e75c4365627e55\"\n}",
									"options": {
										"raw": {
											"language": "json"
										}
									}
								},
								"url": {
									"raw": "localhost:8080/api/v1/product",
									"host": [
										"localhost"
									],
									"port": "8080",
									"path": [
										"api",
										"v1",
										"product"
									]
								}
							},
							"status": "Created",
							"code": 201,
							"_postman_previewlanguage": "json",
							"header": [
								{
									"key": "X-Powered-By",
									"value": "Express"
								},
								{
									"key": "Access-Control-Allow-Origin",
									"value": "http://localhost:8081"
								},
								{
									"key": "Vary",
									"value": "Origin"
								},
								{
									"key": "Access-Control-Allow-Headers",
									"value": "Origin, Content-Type, Accept"
								},
								{
									"key": "Content-Type",
									"value": "application/json; charset=utf-8"
								},
								{
									"key": "Content-Length",
									"value": "254"
								},
								{
									"key": "ETag",
									"value": "W/\"fe-8VW0yNF808jUYskDXR14BfiHA6E\""
								},
								{
									"key": "Date",
									"value": "Wed, 11 May 2022 07:43:48 GMT"
								},
								{
									"key": "Connection",
									"value": "keep-alive"
								},
								{
									"key": "Keep-Alive",
									"value": "timeout=5"
								}
							],
							"cookie": [],
							"body": "{\n    \"title\": \"airbus a320\",\n    \"description\": \"test description\",\n    \"price\": 700,\n    \"categoryId\": \"627a395894e75c4365627e55\",\n    \"userId\": \"627a1ffcf4a64e28dafabc47\",\n    \"createdAt\": \"2022-05-11T07:43:48.480Z\",\n    \"updatedAt\": \"2022-05-11T07:43:48.480Z\",\n    \"id\": \"627b69340dbdb31ae240dc1e\"\n}"
						}
					]
				},
				{
					"name": "delete_product",
					"request": {
						"method": "DELETE",
						"header": [],
						"url": {
							"raw": "{{baseUrl}}/product/627ac6671386bad8ff927462",
							"host": [
								"{{baseUrl}}"
							],
							"path": [
								"product",
								"627ac6671386bad8ff927462"
							]
						},
						"description": "This could be used for deleting existing product"
					},
					"response": [
						{
							"name": "delete_product",
							"originalRequest": {
								"method": "DELETE",
								"header": [],
								"url": {
									"raw": "localhost:8080/api/v1/product/627ac6671386bad8ff927462",
									"host": [
										"localhost"
									],
									"port": "8080",
									"path": [
										"api",
										"v1",
										"product",
										"627ac6671386bad8ff927462"
									]
								}
							},
							"status": "OK",
							"code": 200,
							"_postman_previewlanguage": "json",
							"header": [
								{
									"key": "X-Powered-By",
									"value": "Express"
								},
								{
									"key": "Access-Control-Allow-Origin",
									"value": "http://localhost:8081"
								},
								{
									"key": "Vary",
									"value": "Origin"
								},
								{
									"key": "Access-Control-Allow-Headers",
									"value": "Origin, Content-Type, Accept"
								},
								{
									"key": "Content-Type",
									"value": "application/json; charset=utf-8"
								},
								{
									"key": "Content-Length",
									"value": "51"
								},
								{
									"key": "ETag",
									"value": "W/\"33-iGmraY9IUzyL/pFCEZWfir01uxQ\""
								},
								{
									"key": "Date",
									"value": "Tue, 10 May 2022 20:19:16 GMT"
								},
								{
									"key": "Connection",
									"value": "keep-alive"
								},
								{
									"key": "Keep-Alive",
									"value": "timeout=5"
								}
							],
							"cookie": [],
							"body": "{\n    \"message\": \"Product has been deleted successfully\"\n}"
						}
					]
				},
				{
					"name": "get_products",
					"request": {
						"method": "GET",
						"header": [],
						"url": {
							"raw": "{{baseUrl}}/products",
							"host": [
								"{{baseUrl}}"
							],
							"path": [
								"products"
							]
						},
						"description": "This could be used for retrieving products"
					},
					"response": [
						{
							"name": "get_products",
							"originalRequest": {
								"method": "GET",
								"header": [],
								"url": {
									"raw": "localhost:8080/api/v1/products",
									"host": [
										"localhost"
									],
									"port": "8080",
									"path": [
										"api",
										"v1",
										"products"
									]
								}
							},
							"status": "OK",
							"code": 200,
							"_postman_previewlanguage": "json",
							"header": [
								{
									"key": "X-Powered-By",
									"value": "Express"
								},
								{
									"key": "Access-Control-Allow-Origin",
									"value": "http://localhost:8081"
								},
								{
									"key": "Vary",
									"value": "Origin"
								},
								{
									"key": "Access-Control-Allow-Headers",
									"value": "Origin, Content-Type, Accept"
								},
								{
									"key": "Content-Type",
									"value": "application/json; charset=utf-8"
								},
								{
									"key": "Content-Length",
									"value": "758"
								},
								{
									"key": "ETag",
									"value": "W/\"2f6-OfShB2n6Q4HA/K5jg7H4JlpY2Rs\""
								},
								{
									"key": "Date",
									"value": "Wed, 11 May 2022 07:46:09 GMT"
								},
								{
									"key": "Connection",
									"value": "keep-alive"
								},
								{
									"key": "Keep-Alive",
									"value": "timeout=5"
								}
							],
							"cookie": [],
							"body": "[\n    {\n        \"title\": \"airbus a320\",\n        \"description\": \"test description\",\n        \"price\": 700,\n        \"categoryId\": \"627a395894e75c4365627e55\",\n        \"userId\": \"627a1ffcf4a64e28dafabc47\",\n        \"createdAt\": \"2022-05-11T07:43:48.480Z\",\n        \"updatedAt\": \"2022-05-11T07:43:48.480Z\",\n        \"id\": \"627b69340dbdb31ae240dc1e\"\n    },\n    {\n        \"title\": \"iphone 12\",\n        \"description\": \"test description\",\n        \"price\": 700,\n        \"categoryId\": \"627a395894e75c4365627e55\",\n        \"userId\": \"627a1ffcf4a64e28dafabc47\",\n        \"createdAt\": \"2022-05-11T07:43:24.724Z\",\n        \"updatedAt\": \"2022-05-11T07:43:24.724Z\",\n        \"id\": \"627b691c0dbdb31ae240dc1b\"\n    },\n    {\n        \"title\": \"test2\",\n        \"description\": \"test description\",\n        \"price\": 100,\n        \"categoryId\": \"627a395894e75c4365627e55\",\n        \"userId\": \"627a1ffcf4a64e28dafabc47\",\n        \"createdAt\": \"2022-05-11T07:37:54.755Z\",\n        \"updatedAt\": \"2022-05-11T07:37:54.755Z\",\n        \"id\": \"627b67d207634318d249f2d2\"\n    }\n]"
						}
					]
				},
				{
					"name": "get_product_single",
					"request": {
						"method": "GET",
						"header": [],
						"url": {
							"raw": "{{baseUrl}}/product/627b69340dbdb31ae240dc1e",
							"host": [
								"{{baseUrl}}"
							],
							"path": [
								"product",
								"627b69340dbdb31ae240dc1e"
							]
						},
						"description": "This could be used for retrieving a single product by ID"
					},
					"response": [
						{
							"name": "get_product_single",
							"originalRequest": {
								"method": "GET",
								"header": [],
								"url": {
									"raw": "localhost:8080/api/v1/product/627b69340dbdb31ae240dc1e",
									"host": [
										"localhost"
									],
									"port": "8080",
									"path": [
										"api",
										"v1",
										"product",
										"627b69340dbdb31ae240dc1e"
									]
								}
							},
							"status": "OK",
							"code": 200,
							"_postman_previewlanguage": "json",
							"header": [
								{
									"key": "X-Powered-By",
									"value": "Express"
								},
								{
									"key": "Access-Control-Allow-Origin",
									"value": "http://localhost:8081"
								},
								{
									"key": "Vary",
									"value": "Origin"
								},
								{
									"key": "Access-Control-Allow-Headers",
									"value": "Origin, Content-Type, Accept"
								},
								{
									"key": "Content-Type",
									"value": "application/json; charset=utf-8"
								},
								{
									"key": "Content-Length",
									"value": "254"
								},
								{
									"key": "ETag",
									"value": "W/\"fe-8VW0yNF808jUYskDXR14BfiHA6E\""
								},
								{
									"key": "Date",
									"value": "Wed, 11 May 2022 07:46:33 GMT"
								},
								{
									"key": "Connection",
									"value": "keep-alive"
								},
								{
									"key": "Keep-Alive",
									"value": "timeout=5"
								}
							],
							"cookie": [],
							"body": "{\n    \"title\": \"airbus a320\",\n    \"description\": \"test description\",\n    \"price\": 700,\n    \"categoryId\": \"627a395894e75c4365627e55\",\n    \"userId\": \"627a1ffcf4a64e28dafabc47\",\n    \"createdAt\": \"2022-05-11T07:43:48.480Z\",\n    \"updatedAt\": \"2022-05-11T07:43:48.480Z\",\n    \"id\": \"627b69340dbdb31ae240dc1e\"\n}"
						}
					]
				},
				{
					"name": "get_products_by_name",
					"request": {
						"method": "GET",
						"header": [],
						"url": {
							"raw": "{{baseUrl}}/products?title={title}",
							"host": [
								"{{baseUrl}}"
							],
							"path": [
								"products"
							],
							"query": [
								{
									"key": "title",
									"value": "{title}"
								}
							]
						},
						"description": "This could be used or retrieving products by name"
					},
					"response": [
						{
							"name": "get_products_by_name",
							"originalRequest": {
								"method": "GET",
								"header": [],
								"url": {
									"raw": "localhost:8080/api/v1/products?title=airbus",
									"host": [
										"localhost"
									],
									"port": "8080",
									"path": [
										"api",
										"v1",
										"products"
									],
									"query": [
										{
											"key": "title",
											"value": "airbus"
										}
									]
								}
							},
							"status": "OK",
							"code": 200,
							"_postman_previewlanguage": "json",
							"header": [
								{
									"key": "X-Powered-By",
									"value": "Express"
								},
								{
									"key": "Access-Control-Allow-Origin",
									"value": "http://localhost:8081"
								},
								{
									"key": "Vary",
									"value": "Origin"
								},
								{
									"key": "Access-Control-Allow-Headers",
									"value": "Origin, Content-Type, Accept"
								},
								{
									"key": "Content-Type",
									"value": "application/json; charset=utf-8"
								},
								{
									"key": "Content-Length",
									"value": "256"
								},
								{
									"key": "ETag",
									"value": "W/\"100-bp2PZFsfghwxEkqj7AE2XmjmY/I\""
								},
								{
									"key": "Date",
									"value": "Wed, 11 May 2022 07:47:05 GMT"
								},
								{
									"key": "Connection",
									"value": "keep-alive"
								},
								{
									"key": "Keep-Alive",
									"value": "timeout=5"
								}
							],
							"cookie": [],
							"body": "[\n    {\n        \"title\": \"airbus a320\",\n        \"description\": \"test description\",\n        \"price\": 700,\n        \"categoryId\": \"627a395894e75c4365627e55\",\n        \"userId\": \"627a1ffcf4a64e28dafabc47\",\n        \"createdAt\": \"2022-05-11T07:43:48.480Z\",\n        \"updatedAt\": \"2022-05-11T07:43:48.480Z\",\n        \"id\": \"627b69340dbdb31ae240dc1e\"\n    }\n]"
						}
					]
				},
				{
					"name": "get_products_by_category",
					"request": {
						"method": "GET",
						"header": [],
						"url": {
							"raw": "{{baseUrl}}/products?categoryId={id}",
							"host": [
								"{{baseUrl}}"
							],
							"path": [
								"products"
							],
							"query": [
								{
									"key": "categoryId",
									"value": "{id}"
								}
							]
						},
						"description": "This could be used for retrieving products by categoryId"
					},
					"response": [
						{
							"name": "get_products_by_category",
							"originalRequest": {
								"method": "GET",
								"header": [],
								"url": {
									"raw": "{{baseUrl}}/products?categoryId=627a395894e75c4365627e55",
									"host": [
										"{{baseUrl}}"
									],
									"path": [
										"products"
									],
									"query": [
										{
											"key": "categoryId",
											"value": "627a395894e75c4365627e55"
										}
									]
								}
							},
							"status": "OK",
							"code": 200,
							"_postman_previewlanguage": "json",
							"header": [
								{
									"key": "X-Powered-By",
									"value": "Express"
								},
								{
									"key": "Access-Control-Allow-Origin",
									"value": "http://localhost:8081"
								},
								{
									"key": "Vary",
									"value": "Origin"
								},
								{
									"key": "Access-Control-Allow-Headers",
									"value": "Origin, Content-Type, Accept"
								},
								{
									"key": "Content-Type",
									"value": "application/json; charset=utf-8"
								},
								{
									"key": "Content-Length",
									"value": "758"
								},
								{
									"key": "ETag",
									"value": "W/\"2f6-OfShB2n6Q4HA/K5jg7H4JlpY2Rs\""
								},
								{
									"key": "Date",
									"value": "Wed, 11 May 2022 07:47:24 GMT"
								},
								{
									"key": "Connection",
									"value": "keep-alive"
								},
								{
									"key": "Keep-Alive",
									"value": "timeout=5"
								}
							],
							"cookie": [],
							"body": "[\n    {\n        \"title\": \"airbus a320\",\n        \"description\": \"test description\",\n        \"price\": 700,\n        \"categoryId\": \"627a395894e75c4365627e55\",\n        \"userId\": \"627a1ffcf4a64e28dafabc47\",\n        \"createdAt\": \"2022-05-11T07:43:48.480Z\",\n        \"updatedAt\": \"2022-05-11T07:43:48.480Z\",\n        \"id\": \"627b69340dbdb31ae240dc1e\"\n    },\n    {\n        \"title\": \"iphone 12\",\n        \"description\": \"test description\",\n        \"price\": 700,\n        \"categoryId\": \"627a395894e75c4365627e55\",\n        \"userId\": \"627a1ffcf4a64e28dafabc47\",\n        \"createdAt\": \"2022-05-11T07:43:24.724Z\",\n        \"updatedAt\": \"2022-05-11T07:43:24.724Z\",\n        \"id\": \"627b691c0dbdb31ae240dc1b\"\n    },\n    {\n        \"title\": \"test2\",\n        \"description\": \"test description\",\n        \"price\": 100,\n        \"categoryId\": \"627a395894e75c4365627e55\",\n        \"userId\": \"627a1ffcf4a64e28dafabc47\",\n        \"createdAt\": \"2022-05-11T07:37:54.755Z\",\n        \"updatedAt\": \"2022-05-11T07:37:54.755Z\",\n        \"id\": \"627b67d207634318d249f2d2\"\n    }\n]"
						}
					]
				},
				{
					"name": "put_product_category",
					"request": {
						"method": "PUT",
						"header": [],
						"body": {
							"mode": "raw",
							"raw": "{\n    \"categoryId\": \"627a38db2465a542a19ea6bd\"\n}\n",
							"options": {
								"raw": {
									"language": "json"
								}
							}
						},
						"url": {
							"raw": "{{baseUrl}}/product/627b69340dbdb31ae240dc1e",
							"host": [
								"{{baseUrl}}"
							],
							"path": [
								"product",
								"627b69340dbdb31ae240dc1e"
							]
						},
						"description": "This could be used for updating product's category"
					},
					"response": [
						{
							"name": "put_product_category",
							"originalRequest": {
								"method": "PUT",
								"header": [],
								"body": {
									"mode": "raw",
									"raw": "{\n    \"categoryId\": \"627a38db2465a542a19ea6bd\"\n}\n",
									"options": {
										"raw": {
											"language": "json"
										}
									}
								},
								"url": {
									"raw": "{{baseUrl}}/product/627b69340dbdb31ae240dc1e",
									"host": [
										"{{baseUrl}}"
									],
									"path": [
										"product",
										"627b69340dbdb31ae240dc1e"
									]
								}
							},
							"status": "OK",
							"code": 200,
							"_postman_previewlanguage": "json",
							"header": [
								{
									"key": "X-Powered-By",
									"value": "Express"
								},
								{
									"key": "Access-Control-Allow-Origin",
									"value": "http://localhost:8081"
								},
								{
									"key": "Vary",
									"value": "Origin"
								},
								{
									"key": "Access-Control-Allow-Headers",
									"value": "Origin, Content-Type, Accept"
								},
								{
									"key": "Content-Type",
									"value": "application/json; charset=utf-8"
								},
								{
									"key": "Content-Length",
									"value": "254"
								},
								{
									"key": "ETag",
									"value": "W/\"fe-WNfAHk74Jx5IAWYIudDWj/3WNcY\""
								},
								{
									"key": "Date",
									"value": "Wed, 11 May 2022 07:48:16 GMT"
								},
								{
									"key": "Connection",
									"value": "keep-alive"
								},
								{
									"key": "Keep-Alive",
									"value": "timeout=5"
								}
							],
							"cookie": [],
							"body": "{\n    \"title\": \"airbus a320\",\n    \"description\": \"test description\",\n    \"price\": 700,\n    \"categoryId\": \"627a38db2465a542a19ea6bd\",\n    \"userId\": \"627a1ffcf4a64e28dafabc47\",\n    \"createdAt\": \"2022-05-11T07:43:48.480Z\",\n    \"updatedAt\": \"2022-05-11T07:48:07.719Z\",\n    \"id\": \"627b69340dbdb31ae240dc1e\"\n}"
						}
					]
				},
				{
					"name": "put_product",
					"request": {
						"method": "PUT",
						"header": [],
						"body": {
							"mode": "raw",
							"raw": "{\n    \"title\": \"airbus a380\",\n    \"price\": \"7000000\",\n    \"description\": \"test description\"\n}\n",
							"options": {
								"raw": {
									"language": "json"
								}
							}
						},
						"url": {
							"raw": "{{baseUrl}}/product/627b69340dbdb31ae240dc1e",
							"host": [
								"{{baseUrl}}"
							],
							"path": [
								"product",
								"627b69340dbdb31ae240dc1e"
							]
						},
						"description": "This could be used for updating product's attributes"
					},
					"response": [
						{
							"name": "put_product",
							"originalRequest": {
								"method": "PUT",
								"header": [],
								"body": {
									"mode": "raw",
									"raw": "{\n    \"title\": \"airbus a380\",\n    \"price\": \"7000000\",\n    \"description\": \"test description\"\n}\n",
									"options": {
										"raw": {
											"language": "json"
										}
									}
								},
								"url": {
									"raw": "{{baseUrl}}/product/627b69340dbdb31ae240dc1e",
									"host": [
										"{{baseUrl}}"
									],
									"path": [
										"product",
										"627b69340dbdb31ae240dc1e"
									]
								}
							},
							"status": "OK",
							"code": 200,
							"_postman_previewlanguage": "json",
							"header": [
								{
									"key": "X-Powered-By",
									"value": "Express"
								},
								{
									"key": "Access-Control-Allow-Origin",
									"value": "http://localhost:8081"
								},
								{
									"key": "Vary",
									"value": "Origin"
								},
								{
									"key": "Access-Control-Allow-Headers",
									"value": "Origin, Content-Type, Accept"
								},
								{
									"key": "Content-Type",
									"value": "application/json; charset=utf-8"
								},
								{
									"key": "Content-Length",
									"value": "258"
								},
								{
									"key": "ETag",
									"value": "W/\"102-UWsvoSSI7FL7TmlQ1MFBGNacjBY\""
								},
								{
									"key": "Date",
									"value": "Wed, 11 May 2022 08:07:56 GMT"
								},
								{
									"key": "Connection",
									"value": "keep-alive"
								},
								{
									"key": "Keep-Alive",
									"value": "timeout=5"
								}
							],
							"cookie": [],
							"body": "{\n    \"title\": \"airbus a380\",\n    \"description\": \"test description\",\n    \"price\": 7000000,\n    \"categoryId\": \"627a395894e75c4365627e55\",\n    \"userId\": \"627a1ffcf4a64e28dafabc47\",\n    \"createdAt\": \"2022-05-11T07:43:48.480Z\",\n    \"updatedAt\": \"2022-05-11T08:07:56.675Z\",\n    \"id\": \"627b69340dbdb31ae240dc1e\"\n}"
						}
					]
				}
			],
			"description": "Product related operations are taken place in these endpoints listed in this folder.\n\n*   post_product: For creating new product\n*   delete_product: For deleting existing product\n*   get_products: For listing products\n*   get_product_single: For getting a single product\n*   get_products_by_name: For retrieving products by name\n*   get_products_by_category: For retrieving products by categoryId\n*   put_product_category: For updating product's category\n*   put_product: For updating product's attributes"
		},
		{
			"name": "Category",
			"item": [
				{
					"name": "post_category",
					"request": {
						"method": "POST",
						"header": [],
						"body": {
							"mode": "raw",
							"raw": "{\n    \"name\": \"category #2\",\n    \"description\": \"tetst  test\"\n}",
							"options": {
								"raw": {
									"language": "json"
								}
							}
						},
						"url": {
							"raw": "{{baseUrl}}/category",
							"host": [
								"{{baseUrl}}"
							],
							"path": [
								"category"
							]
						},
						"description": "This could be used for creating new category"
					},
					"response": [
						{
							"name": "post_category",
							"originalRequest": {
								"method": "POST",
								"header": [],
								"body": {
									"mode": "raw",
									"raw": "{\n    \"name\": \"category #5\",\n    \"description\": \"tetst  test\"\n}",
									"options": {
										"raw": {
											"language": "json"
										}
									}
								},
								"url": {
									"raw": "{{baseUrl}}/category",
									"host": [
										"{{baseUrl}}"
									],
									"path": [
										"category"
									]
								}
							},
							"status": "Created",
							"code": 201,
							"_postman_previewlanguage": "json",
							"header": [
								{
									"key": "X-Powered-By",
									"value": "Express"
								},
								{
									"key": "Access-Control-Allow-Origin",
									"value": "http://localhost:8081"
								},
								{
									"key": "Vary",
									"value": "Origin"
								},
								{
									"key": "Access-Control-Allow-Headers",
									"value": "Origin, Content-Type, Accept"
								},
								{
									"key": "Content-Type",
									"value": "application/json; charset=utf-8"
								},
								{
									"key": "Content-Length",
									"value": "160"
								},
								{
									"key": "ETag",
									"value": "W/\"a0-wiYqKWjhmr5rz3smkJTvEB4i+C8\""
								},
								{
									"key": "Date",
									"value": "Wed, 11 May 2022 08:09:00 GMT"
								},
								{
									"key": "Connection",
									"value": "keep-alive"
								},
								{
									"key": "Keep-Alive",
									"value": "timeout=5"
								}
							],
							"cookie": [],
							"body": "{\n    \"name\": \"category #5\",\n    \"description\": \"tetst  test\",\n    \"createdAt\": \"2022-05-11T08:09:00.021Z\",\n    \"updatedAt\": \"2022-05-11T08:09:00.021Z\",\n    \"id\": \"627b6f1bad64e61fd47163ae\"\n}"
						}
					]
				},
				{
					"name": "get_categories",
					"request": {
						"method": "GET",
						"header": [],
						"url": {
							"raw": "{{baseUrl}}/categories",
							"host": [
								"{{baseUrl}}"
							],
							"path": [
								"categories"
							]
						},
						"description": "This could be used for deleting existing category"
					},
					"response": [
						{
							"name": "get_categories",
							"originalRequest": {
								"method": "GET",
								"header": [],
								"url": {
									"raw": "{{baseUrl}}/categories",
									"host": [
										"{{baseUrl}}"
									],
									"path": [
										"categories"
									]
								}
							},
							"status": "OK",
							"code": 200,
							"_postman_previewlanguage": "json",
							"header": [
								{
									"key": "X-Powered-By",
									"value": "Express"
								},
								{
									"key": "Access-Control-Allow-Origin",
									"value": "http://localhost:8081"
								},
								{
									"key": "Vary",
									"value": "Origin"
								},
								{
									"key": "Access-Control-Allow-Headers",
									"value": "Origin, Content-Type, Accept"
								},
								{
									"key": "Content-Type",
									"value": "application/json; charset=utf-8"
								},
								{
									"key": "Content-Length",
									"value": "635"
								},
								{
									"key": "ETag",
									"value": "W/\"27b-1OOcdxGfpDJXQm/BP4xReWp2sIU\""
								},
								{
									"key": "Date",
									"value": "Wed, 11 May 2022 07:31:59 GMT"
								},
								{
									"key": "Connection",
									"value": "keep-alive"
								},
								{
									"key": "Keep-Alive",
									"value": "timeout=5"
								}
							],
							"cookie": [],
							"body": "[\n    {\n        \"name\": \"category #2\",\n        \"description\": \"tetst  test\",\n        \"createdAt\": \"2022-05-10T13:19:06.383Z\",\n        \"updatedAt\": \"2022-05-10T13:19:06.383Z\",\n        \"id\": \"627a664ab0034463ad8417c3\"\n    },\n    {\n        \"name\": \"category #1\",\n        \"description\": \"tetst  test\",\n        \"createdAt\": \"2022-05-10T12:52:28.764Z\",\n        \"updatedAt\": \"2022-05-10T12:52:28.764Z\",\n        \"id\": \"627a600c7a5210585d616fd9\"\n    },\n    {\n        \"name\": \"category #1\",\n        \"description\": \"tetst  test\",\n        \"createdAt\": \"2022-05-10T12:47:14.498Z\",\n        \"updatedAt\": \"2022-05-10T12:47:14.498Z\",\n        \"id\": \"627a5ed26af58352a3e4cf68\"\n    },\n    {\n        \"name\": \"eurueruue\",\n        \"description\": \"asd\",\n        \"createdAt\": \"2022-05-10T10:07:20.448Z\",\n        \"updatedAt\": \"2022-05-10T10:07:20.448Z\",\n        \"id\": \"627a395894e75c4365627e55\"\n    }\n]"
						}
					]
				},
				{
					"name": "delete_category",
					"request": {
						"method": "DELETE",
						"header": [],
						"url": {
							"raw": "{{baseUrl}}/category/627a38db2465a542a19ea6bd",
							"host": [
								"{{baseUrl}}"
							],
							"path": [
								"category",
								"627a38db2465a542a19ea6bd"
							]
						},
						"description": "This could be used for retrieving categories"
					},
					"response": [
						{
							"name": "delete_category",
							"originalRequest": {
								"method": "DELETE",
								"header": [],
								"url": {
									"raw": "{{baseUrl}}/category/627a38db2465a542a19ea6bd",
									"host": [
										"{{baseUrl}}"
									],
									"path": [
										"category",
										"627a38db2465a542a19ea6bd"
									]
								}
							},
							"status": "OK",
							"code": 200,
							"_postman_previewlanguage": "json",
							"header": [
								{
									"key": "X-Powered-By",
									"value": "Express"
								},
								{
									"key": "Access-Control-Allow-Origin",
									"value": "http://localhost:8081"
								},
								{
									"key": "Vary",
									"value": "Origin"
								},
								{
									"key": "Access-Control-Allow-Headers",
									"value": "Origin, Content-Type, Accept"
								},
								{
									"key": "Content-Type",
									"value": "application/json; charset=utf-8"
								},
								{
									"key": "Content-Length",
									"value": "48"
								},
								{
									"key": "ETag",
									"value": "W/\"30-BQaoiyvZSeo5tMVyvvTEr9LjbIk\""
								},
								{
									"key": "Date",
									"value": "Tue, 10 May 2022 13:18:26 GMT"
								},
								{
									"key": "Connection",
									"value": "keep-alive"
								},
								{
									"key": "Keep-Alive",
									"value": "timeout=5"
								}
							],
							"cookie": [],
							"body": "{\n    \"message\": \"Category was deleted successfully!\"\n}"
						}
					]
				}
			],
			"description": "Category related operations are taken place in these endpoints listed in this folder.\n\n*   post_category: For creating new category\n*   delete_category: For deleting existing category\n*   get_categories: For listing categories",
			"auth": {
				"type": "noauth"
			},
			"event": [
				{
					"listen": "prerequest",
					"script": {
						"type": "text/javascript",
						"exec": [
							""
						]
					}
				},
				{
					"listen": "test",
					"script": {
						"type": "text/javascript",
						"exec": [
							""
						]
					}
				}
			]
		}
	],
	"auth": {
		"type": "bearer",
		"bearer": [
			{
				"key": "token",
				"value": "eyJhbGciOiJIUzI1NiIsInR5cCI6IkpXVCJ9.eyJpZCI6IjYyN2ExZmZjZjRhNjRlMjhkYWZhYmM0NyIsImlhdCI6MTY1MjI1NDI4MiwiZXhwIjoxNjUyMzQwNjgyfQ.otNfa2VryhX7nuhx35VtMkhbcTCJPWP8EegDD4iX9Uw",
				"type": "string"
			}
		]
	},
	"event": [
		{
			"listen": "prerequest",
			"script": {
				"type": "text/javascript",
				"exec": [
					""
				]
			}
		},
		{
			"listen": "test",
			"script": {
				"type": "text/javascript",
				"exec": [
					""
				]
			}
		}
	],
	"variable": [
		{
			"key": "baseUrl",
			"value": "localhost:8080/api/v1",
			"type": "string"
		}
	]
}